1,01_2907140831,628120,628120,01,10,29072014,,1,2,3,4,5
2,SAVINGS,PAFUPI,,HEAD OFFICE,BLANTYRE,,,NONE,PAFUPI.jpg,0025171187134|10|454|15000|15000|,,
2,SAVINGS,PAFUPI,,HEAD OFFICE,BLANTYRE,,,NONE,PAFUPI.jpg,0025171192908|10|454|15000|15000|,,
2,SAVINGS,PAFUPI,,HEAD OFFICE,BLANTYRE,,,NONE,PAFUPI.jpg,0025171160438|10|454|15000|15000|,,
2,SAVINGS,PAFUPI,,HEAD OFFICE,BLANTYRE,,,NONE,PAFUPI.jpg,0025171192205|10|454|15000|15000|,,
2,SAVINGS,PAFUPI,,HEAD OFFICE,BLANTYRE,,,NONE,PAFUPI.jpg,0025171170420|10|454|15000|15000|,,
